    1  ifconfig
    2  sudo /sbin/ifconfig 
    3  sudo hostnamectl set -hostname W1.rosebud.MacGuffins.Test
    4  sudo hostnamectl set-hostname W1.rosebud.MacGuffins.Test
    5  sudo hostnamectl get-hostname
    6  hostname
    7  ping 192.168.134.179
    8  hostname
    9  vinagre 192.168.134.179
   10  command-not-found vinagre
   11  sudo zypper install vinagre
   12  vinagre 192.168.134.179
   13  ls -l $(which ping)
   14  ip a
   15  ssh carolyn@10.0.2.5
   16  ip a
   17  vim /etc/hosts
   18  sudo vim /etc/hosts
   19  cat /etc/hosts
   20  ip a
   21  sudo vim /etc/hosts
   22  sudo vim /etc/auto.master
   23  sudo zypper install autofs
   24  grep -E '/net.*hosts' /etc/hosts /etc/auto.master
   25  ll /net/192.168.134.1
   26  grep -E '/net.*hosts' /etc/auto.master
   27  ll /net/192.168.134.1/srv
   28  ll /net/192.168.134.1/srv/commons
   29  ll /net/192.168.134.1/srv/commons/add-to-hosts
   30  ll /net
   31  sudo systemctl start autofs
   32  ll /net/192.168.134.1/srv/commons/add-to-hosts
   33  cat /net/192.168.134.1/srv/commons/add-to-hosts
   34  cat /net/192.168.134.1/srv/commons/add-to-hosts | sudo tee -a /etc/hosts
   35  cat /etc/hosts
   36  cat /net/RackMaster/srv/commons/add-to-hosts
   37  cat /net/rackmaster/srv/commons/add-to-hosts
   38  sudo ln -s /net/rackmaster/srv/commons /commons
   39  ls /
   40  ls /commons
   41  ll /commons
   42  ll /commons/
   43  ls
   44  history > hist-0820.out
    1  ip a
    2  ls /
    3  ls /commons
    4  ls /commons/
    5  ll /commons
    6  ll /commons/
    7  cat hist-0820.out 
    8  ls
    9  sudo systemctl enable autofs
   10  less hist-0820.out 
   11  sudo systemctl restart autofs
   12  history
   13  history >> hist-0820.out 
