 ____________________________
/ *Set up virtual host       |                            |
| -2 network interfaces      |
|                            |
| -2 hard drives (1 32GB)    |
|                            |
| -basic Xubuntu install     |
|                            |
\ -installed guest additions /
 ----------------------------
        \   ^__^
         \  (oo)\_______
            (__)\       )\/                ||----w |
                ||     ||

