Disk: /dev/sda
  Partition Table Type: msdos
  Serial Number: VB49b51f97-ff045182
  Partition: /dev/sda1
    Filesystem Type: Linux
    Size: 399M
    Usage: 26%
    Label: 
    UUID: cf15fd47-ea92-4f4f-a4df-e9e9a74001a4
  Partition: /dev/sda2
    Filesystem Type: LVM
    Size: 15.6G
    Usage: 
    Label: 
    UUID: NOTbW3-CaiS-kNe2-WpLU-2VRF-xd80-nFA0pu
