
-==[ STUDENT 5 ]=--
192.168.134.51 S1.WalterSobchak.MacGuffins.Test S1
192.168.134.52 S2.WalterSobchak.MacGuffins.Test S2
192.168.134.53 S3.WalterSobchak.MacGuffins.Test S3
192.168.134.54 S4.WalterSobchak.MacGuffins.Test S4
192.168.134.55 S5.WalterSobchak.MacGuffins.Test S5
192.168.134.56 S6.WalterSobchak.MacGuffins.Test S6
192.168.134.57 S7.WalterSobchak.MacGuffins.Test S7
192.168.134.58 S8.WalterSobchak.MacGuffins.Test S8
192.168.134.59 W1.WalterSobchak.MacGuffins.Test W1
